Compute seasonal onset and burden levels from seasonal time series observations. — combined_seasonal_output • aedseo
…
weekly_dates <- seq.Date(from = start_date,
                         to = end_date,
                         by = "week")

tsd_data <- to_time_series(
  cases = c(season_1, season_2),
  time = as.Date(weekly_dates)
)

# Run the main function
combined_data <- combined_seasonal_output(tsd_data)
# Print seasonal onset results
print(combined_data$onset_output)
#> # A tibble: 52 × 15
#>    reference_time cases season    population incidence growth_rate
#>    <date>         <dbl> <chr>     <lgl>      <lgl>           <dbl>
#>  1 2023-05-28         6 2023/2024 NA         NA            -0.427 
#>  2 2023-06-04        81 2023/2024 NA         NA            -0.156 
#>  3 2023-06-11       121 2023/2024 NA         NA             0.0834
#>  4 2023-06-18       145 2023/2024 NA         NA             0.287 
#>  5 2023-06-25       157 2023/2024 NA         NA             0.381 
#>  6 2023-07-02       237 2023/2024 NA         NA             0.241 
#>  7 2023-07-09       385 2023/2024 NA         NA             0.309 
#>  8 2023-07-16       392 2023/2024 NA         NA             0.284 
#>  9 2023-07-23       430 2023/2024 NA         NA             0.224 
#> 10 2023-07-30       540 2023/2024 NA         NA             0.166 
#> # ℹ 42 more rows
#> # ℹ 9 more variables: lower_growth_rate <dbl>, upper_growth_rate <dbl>,
#> #   growth_warning <lgl>, average_observations_window <dbl>,
#> #   average_observations_warning <lgl>, seasonal_onset_alarm <lgl>,
#> #   skipped_window <lgl>, converged <lgl>, seasonal_onset <lgl>
…
