Create a tsd_growth_warning object to count consecutive significant observations — consecutive_growth_warnings • aedseo
…
# Estimate seasonal onset
tsd_onset <- seasonal_onset(
  tsd = sim_data,
  family = "quasipoisson",
  season_start = 21,
  season_end = 20,
  only_current_season = FALSE
)

# Get consecutive significant observations
consecutive_growth_warnings(tsd_onset)
#> # A tibble: 256 × 16
#>    reference_time observation season    growth_rate lower_growth_rate
#>    <date>               <dbl> <chr>           <dbl>             <dbl>
#>  1 2022-06-23             101 2022/2023      0.218             0.110 
#>  2 2022-06-30             113 2022/2023      0.226             0.130 
#>  3 2022-07-07             159 2022/2023      0.288             0.234 
#>  4 2022-07-14             152 2022/2023      0.200             0.111 
#>  5 2022-07-21             155 2022/2023      0.109             0.0310
#>  6 2022-07-28             201 2022/2023      0.111             0.0389
#>  7 2022-08-04             197 2022/2023      0.0725            0.0166
#>  8 2022-08-11             237 2022/2023      0.113             0.0699
#>  9 2022-08-18             196 2022/2023      0.0599           -0.0220
#> 10 2022-08-25             235 2022/2023      0.0314           -0.0287
#> # ℹ 246 more rows
#> # ℹ 11 more variables: upper_growth_rate <dbl>, growth_warning <lgl>,
#> #   sum_of_cases <dbl>, sum_of_cases_warning <lgl>, seasonal_onset_alarm <lgl>,
#> #   skipped_window <lgl>, converged <lgl>, counter <dbl>, changeFlag <lgl>,
#> #   groupID <int>, significant_counter <dbl>
…
