Estimate the disease specific threshold of your time series data — estimate_disease_threshold • aedseo
…
#> $settings$season_importance_decay
#> [1] 0.8
#> 
#> $settings$percentiles
#> [1] 0.25 0.50 0.75
#> 
#> 
#> $incidence_denominator
#> [1] NA
#> 
#> $time_interval
#> [1] "weeks"
#> 
#> $onset_output
#> # A tibble: 121 × 14
#>    reference_time cases season    population incidence growth_rate
#>    <date>         <dbl> <chr>     <lgl>      <lgl>           <dbl>
#>  1 2021-01-29       175 2020/2021 NA         NA            0.111  
#>  2 2021-02-05       173 2020/2021 NA         NA            0.00175
#>  3 2021-02-12       191 2020/2021 NA         NA            0.0263 
#>  4 2021-02-19       203 2020/2021 NA         NA            0.0554 
#>  5 2021-02-26       222 2020/2021 NA         NA            0.0644 
#>  6 2021-03-05       217 2020/2021 NA         NA            0.0592 
#>  7 2021-03-12       202 2020/2021 NA         NA            0.0174 
#>  8 2021-03-19       183 2020/2021 NA         NA           -0.0292 
#>  9 2021-03-26       254 2020/2021 NA         NA            0.0139 
#> 10 2021-04-02       185 2020/2021 NA         NA           -0.00576
#> # ℹ 111 more rows
#> # ℹ 8 more variables: lower_growth_rate <dbl>, upper_growth_rate <dbl>,
#> #   growth_warning <lgl>, average_observations_window <dbl>,
#> #   average_observations_warning <lgl>, seasonal_onset_alarm <lgl>,
#> #   skipped_window <lgl>, converged <lgl>
…
