Create a tsd_growth_warning object to count consecutive significant observations — consecutive_growth_warnings • aedseo
…
# Estimate seasonal onset
tsd_onset <- seasonal_onset(
  tsd = sim_data,
  season_start = 21,
  season_end = 20,
  only_current_season = FALSE
)

# Get consecutive significant observations
consecutive_growth_warnings(tsd_onset)
#> # A tibble: 256 × 18
#>    reference_time cases season    population incidence growth_rate
#>    <date>         <dbl> <chr>     <lgl>      <lgl>           <dbl>
#>  1 2022-06-23       101 2022/2023 NA         NA             0.218 
#>  2 2022-06-30       113 2022/2023 NA         NA             0.226 
#>  3 2022-07-07       159 2022/2023 NA         NA             0.288 
#>  4 2022-07-14       152 2022/2023 NA         NA             0.200 
#>  5 2022-07-21       155 2022/2023 NA         NA             0.109 
#>  6 2022-07-28       201 2022/2023 NA         NA             0.111 
#>  7 2022-08-04       197 2022/2023 NA         NA             0.0725
#>  8 2022-08-11       237 2022/2023 NA         NA             0.113 
#>  9 2022-08-18       196 2022/2023 NA         NA             0.0599
#> 10 2022-08-25       235 2022/2023 NA         NA             0.0314
#> # ℹ 246 more rows
#> # ℹ 12 more variables: lower_growth_rate <dbl>, upper_growth_rate <dbl>,
#> #   growth_warning <lgl>, average_observations_window <dbl>,
#> #   average_observations_warning <lgl>, seasonal_onset_alarm <lgl>,
#> #   skipped_window <lgl>, converged <lgl>, counter <dbl>, changeFlag <lgl>,
#> #   groupID <int>, significant_counter <dbl>
…
